{
    "currentPage": 1,
    "perPage": 10,
    "lastPage": 5,
    "total": 50,
    "data": [
        {
            "id": 1,
            "createdAt": "2024-11-21T17:22:11.272097",
            "title": "test",
            "message": "test"
        },
        {
            "id": 2,
            "createdAt": "2024-11-21T17:29:12.58435",
            "title": "test",
            "message": "test"
        },
        {
            "id": 3,
            "createdAt": "2024-11-21T17:29:13.873247",
            "title": "test",
            "message": "test"
        },
        {
            "id": 4,
            "createdAt": "2024-11-21T17:29:15.111248",
            "title": "test",
            "message": "test"
        },
        {
            "id": 5,
            "createdAt": "2024-11-21T17:46:26.205223",
            "title": "test",
            "message": "test"
        },
        {
            "id": 6,
            "createdAt": "2024-11-21T17:55:58.12849",
            "title": "test",
            "message": "test"
        },
        {
            "id": 7,
            "createdAt": "2024-11-21T17:56:05.517237",
            "title": "test",
            "message": "test"
        },
        {
            "id": 8,
            "createdAt": "2024-11-21T17:56:06.545775",
            "title": "test",
            "message": "test"
        },
        {
            "id": 9,
            "createdAt": "2024-11-21T17:56:07.391693",
            "title": "test",
            "message": "test"
        },
        {
            "id": 10,
            "createdAt": "2024-11-21T17:56:08.280757",
            "title": "test",
            "message": "test"
        }
    ]
}
